{
  "items": [

    {
      "name": "Canada",
      "items": [
        { "name": "96094437.jpg"},
        { "name": "25093762.jpg"},
        { "name": "14302238.jpg"},
        { "name": "16545821.jpg"},
        { "name": "14412238.jpg"},
        { "name": "59835252.jpg"}
      ]
    },

    {
      "name": "96209768.jpg"
    },

    {
      "name": "Europe",
      "items": [
        {
          "name": "Spain",
          "items": [
            {
              "name": "Valencia",
              "items": [
                  { "name": "96094437.jpg"},
                  { "name": "96563762.jpg"},
                  { "name": "14112238.jpg"},
                  { "name": "16685821.jpg"},
                  { "name": "14302238.jpg"},
                  { "name": "59773152.jpg"}
              ]
            },
            {
              "name": "Madrid",
              "items": [
                  { "name": "96587231.jpg"},
                  { "name": "12563762.jpg"},
                  { "name": "12112238.jpg"},
                  { "name": "17685821.jpg"},
                  { "name": "18302238.jpg"},
                  { "name": "19773152.jpg"}
              ]
            }        
          ]
        }
      ]
    },

    {
      "name": "New Zeland",
      "items": [
        { "name": "96312089.jpg"},
        { "name": "96453762.jpg"},
        { "name": "14333338.jpg"},
        { "name": "16685821.jpg"},
        { "name": "14343238.jpg"},
        { "name": "59833142.jpg"}
      ]
    },    

    {
      "name": "96904102.jpg"
    }
  ]
}